{
  "log": {
    "browser": {
      "version": "mumble", 
      "name": "Dalvik/2.1.0 (Linux; U; Android 5.1.1; Lenovo A6020a40 Build/LMY47V)"
    }, 
    "version": "1.1", 
    "entries": [
      {
        "cache": {}, 
        "startedDateTime": "2017-05-12T22:18:13.582440Z", 
        "pageref": "pageref_0", 
        "request": {
          "headers": [
            {
              "name": "host", 
              "value": "clients3.google.com"
            }, 
            {
              "name": "connection", 
              "value": "Keep-Alive"
            }, 
            {
              "name": "accept-encoding", 
              "value": "gzip"
            }, 
            {
              "name": "user-agent", 
              "value": "Dalvik/2.1.0 (Linux; U; Android 5.1.1; Lenovo A6020a40 Build/LMY47V)"
            }
          ], 
          "cookies": [], 
          "postData": {
            "text": ""
          }, 
          "url": "http://clients3.google.com/generate_204", 
          "bodySize": 0, 
          "queryString": [], 
          "method": "GET", 
          "headersSize": -1, 
          "httpVersion": "1.1"
        }, 
        "timings": {
          "receive": 0, 
          "send": 0, 
          "connect": 141, 
          "dns": 54, 
          "blocked": -1, 
          "wait": 37
        }, 
        "time": 232, 
        "response": {
          "status": 204, 
          "headers": [
            {
              "name": "date", 
              "value": "Fri, 12 May 2017 22:18:13 GMT"
            }, 
            {
              "name": "content-length", 
              "value": "0"
            }
          ], 
          "cookies": [], 
          "content": {
            "mimeType": "application/x-unknown-content-type", 
            "text": "", 
            "encoding": "base64", 
            "compression": 0, 
            "size": 0
          }, 
          "redirectURL": "", 
          "statusText": "No Content", 
          "bodySize": 0, 
          "headersSize": -1, 
          "httpVersion": "1.1"
        }
      }, 
      {
        "cache": {}, 
        "startedDateTime": "2017-05-12T22:18:13.582440Z", 
        "pageref": "pageref_0", 
        "request": {
          "headers": [
            {
              "name": "host", 
              "value": "clients3.google.com"
            }, 
            {
              "name": "connection", 
              "value": "Keep-Alive"
            }, 
            {
              "name": "accept-encoding", 
              "value": "gzip"
            }, 
            {
              "name": "user-agent", 
              "value": "Dalvik/2.1.0 (Linux; U; Android 5.1.1; Lenovo A6020a40 Build/LMY47V)"
            }
          ], 
          "cookies": [], 
          "postData": {
            "text": ""
          }, 
          "url": "http://clients3.google.com/generate_204", 
          "bodySize": 0, 
          "queryString": [], 
          "method": "GET", 
          "headersSize": -1, 
          "httpVersion": "1.1"
        }, 
        "timings": {
          "receive": 0, 
          "send": 0, 
          "connect": 136, 
          "dns": 57, 
          "blocked": -1, 
          "wait": 37
        }, 
        "time": 232, 
        "response": {
          "status": 204, 
          "headers": [
            {
              "name": "date", 
              "value": "Fri, 12 May 2017 22:18:13 GMT"
            }, 
            {
              "name": "content-length", 
              "value": "0"
            }
          ], 
          "cookies": [], 
          "content": {
            "mimeType": "application/x-unknown-content-type", 
            "text": "", 
            "encoding": "base64", 
            "compression": 0, 
            "size": 0
          }, 
          "redirectURL": "", 
          "statusText": "No Content", 
          "bodySize": 0, 
          "headersSize": -1, 
          "httpVersion": "1.1"
        }
      }, 
      {
        "cache": {}, 
        "startedDateTime": "2017-05-12T22:19:09.795905Z", 
        "pageref": "pageref_0", 
        "request": {
          "headers": [
            {
              "name": "host", 
              "value": "connectivitycheck.android.com"
            }, 
            {
              "name": "connection", 
              "value": "Keep-Alive"
            }, 
            {
              "name": "accept-encoding", 
              "value": "gzip"
            }, 
            {
              "name": "user-agent", 
              "value": "Dalvik/2.1.0 (Linux; U; Android 5.1.1; Lenovo A6020a40 Build/LMY47V)"
            }
          ], 
          "cookies": [], 
          "postData": {
            "text": ""
          }, 
          "url": "http://connectivitycheck.android.com/generate_204", 
          "bodySize": 0, 
          "queryString": [], 
          "method": "GET", 
          "headersSize": -1, 
          "httpVersion": "1.1"
        }, 
        "timings": {
          "receive": 0, 
          "send": 0, 
          "connect": 65, 
          "dns": 206, 
          "blocked": -1, 
          "wait": 68
        }, 
        "time": 340, 
        "response": {
          "status": 204, 
          "headers": [
            {
              "name": "date", 
              "value": "Fri, 12 May 2017 22:19:09 GMT"
            }, 
            {
              "name": "content-length", 
              "value": "0"
            }
          ], 
          "cookies": [], 
          "content": {
            "mimeType": "application/x-unknown-content-type", 
            "text": "", 
            "encoding": "base64", 
            "compression": 0, 
            "size": 0
          }, 
          "redirectURL": "", 
          "statusText": "No Content", 
          "bodySize": 0, 
          "headersSize": -1, 
          "httpVersion": "1.1"
        }
      }, 
      {
        "cache": {}, 
        "startedDateTime": "2017-05-12T22:19:25.536043Z", 
        "pageref": "pageref_0", 
        "request": {
          "headers": [
            {
              "name": "host", 
              "value": "clients3.google.com"
            }, 
            {
              "name": "connection", 
              "value": "Keep-Alive"
            }, 
            {
              "name": "accept-encoding", 
              "value": "gzip"
            }, 
            {
              "name": "user-agent", 
              "value": "Dalvik/2.1.0 (Linux; U; Android 5.1.1; Lenovo A6020a40 Build/LMY47V)"
            }
          ], 
          "cookies": [], 
          "postData": {
            "text": ""
          }, 
          "url": "http://clients3.google.com/generate_204", 
          "bodySize": 0, 
          "queryString": [], 
          "method": "GET", 
          "headersSize": -1, 
          "httpVersion": "1.1"
        }, 
        "timings": {
          "receive": 0, 
          "send": 0, 
          "connect": 105, 
          "dns": -1, 
          "blocked": -1, 
          "wait": 59
        }, 
        "time": 165, 
        "response": {
          "status": 204, 
          "headers": [
            {
              "name": "date", 
              "value": "Fri, 12 May 2017 22:19:25 GMT"
            }, 
            {
              "name": "content-length", 
              "value": "0"
            }
          ], 
          "cookies": [], 
          "content": {
            "mimeType": "application/x-unknown-content-type", 
            "text": "", 
            "encoding": "base64", 
            "compression": 0, 
            "size": 0
          }, 
          "redirectURL": "", 
          "statusText": "No Content", 
          "bodySize": 0, 
          "headersSize": -1, 
          "httpVersion": "1.1"
        }
      }, 
      {
        "cache": {}, 
        "startedDateTime": "2017-05-12T22:19:25.664746Z", 
        "pageref": "pageref_0", 
        "request": {
          "headers": [
            {
              "name": "host", 
              "value": "clients3.google.com"
            }, 
            {
              "name": "connection", 
              "value": "Keep-Alive"
            }, 
            {
              "name": "accept-encoding", 
              "value": "gzip"
            }, 
            {
              "name": "user-agent", 
              "value": "Dalvik/2.1.0 (Linux; U; Android 5.1.1; Lenovo A6020a40 Build/LMY47V)"
            }
          ], 
          "cookies": [], 
          "postData": {
            "text": ""
          }, 
          "url": "http://clients3.google.com/generate_204", 
          "bodySize": 0, 
          "queryString": [], 
          "method": "GET", 
          "headersSize": -1, 
          "httpVersion": "1.1"
        }, 
        "timings": {
          "receive": 0, 
          "send": 0, 
          "connect": 65, 
          "dns": -1, 
          "blocked": -1, 
          "wait": 72
        }, 
        "time": 137, 
        "response": {
          "status": 204, 
          "headers": [
            {
              "name": "date", 
              "value": "Fri, 12 May 2017 22:19:25 GMT"
            }, 
            {
              "name": "content-length", 
              "value": "0"
            }
          ], 
          "cookies": [], 
          "content": {
            "mimeType": "application/x-unknown-content-type", 
            "text": "", 
            "encoding": "base64", 
            "compression": 0, 
            "size": 0
          }, 
          "redirectURL": "", 
          "statusText": "No Content", 
          "bodySize": 0, 
          "headersSize": -1, 
          "httpVersion": "1.1"
        }
      }, 
      {
        "cache": {}, 
        "startedDateTime": "2017-05-12T22:19:32.139576Z", 
        "pageref": "pageref_0", 
        "request": {
          "headers": [
            {
              "name": "host", 
              "value": "pushapi.lenovomm.com"
            }, 
            {
              "name": "content-type", 
              "value": "application/x-www-form-urlencoded"
            }, 
            {
              "name": "connection", 
              "value": "Keep-Alive"
            }, 
            {
              "name": "accept-encoding", 
              "value": "gzip"
            }, 
            {
              "name": "user-agent", 
              "value": "Dalvik/2.1.0 (Linux; U; Android 5.1.1; Lenovo A6020a40 Build/LMY47V)"
            }
          ], 
          "cookies": [], 
          "postData": {
            "text": ""
          }, 
          "url": "http://pushapi.lenovomm.com/wget/1.0/wgetdownload?imei1=861895030716055&cpu=arm64-v8a&android=22&md5=", 
          "bodySize": 0, 
          "queryString": [
            {
              "name": "imei1", 
              "value": "861895030716055"
            }, 
            {
              "name": "android", 
              "value": "22"
            }, 
            {
              "name": "cpu", 
              "value": "arm64-v8a"
            }
          ], 
          "method": "GET", 
          "headersSize": -1, 
          "httpVersion": "1.1"
        }, 
        "timings": {
          "receive": 0, 
          "send": 0, 
          "connect": 438, 
          "dns": 252, 
          "blocked": -1, 
          "wait": 338
        }, 
        "time": 1030, 
        "response": {
          "status": 200, 
          "headers": [
            {
              "name": "content-language", 
              "value": "en-US"
            }, 
            {
              "name": "transfer-encoding", 
              "value": "chunked"
            }, 
            {
              "name": "server", 
              "value": "openresty/1.11.2.2"
            }, 
            {
              "name": "connection", 
              "value": "close"
            }, 
            {
              "name": "cache-control", 
              "value": "no-store"
            }, 
            {
              "name": "date", 
              "value": "Fri, 12 May 2017 22:19:32 GMT"
            }, 
            {
              "name": "content-type", 
              "value": "application/json;charset=UTF-8"
            }
          ], 
          "cookies": [], 
          "content": {
            "mimeType": "application/json", 
            "text": "eyJyZXN1bHQiOiIxIiwidXJsIjoiaHR0cDovL2FmZi5lY2FydG9vbi5uZXQvcHBmaWxlcy8yMDE1MDczMTEwNTAzNC93Z2V0X1BJRSJ9", 
            "encoding": "base64", 
            "compression": 0, 
            "size": 78
          }, 
          "redirectURL": "", 
          "statusText": "OK", 
          "bodySize": 78, 
          "headersSize": -1, 
          "httpVersion": "1.1"
        }
      }, 
      {
        "cache": {}, 
        "startedDateTime": "2017-05-12T22:19:33.466517Z", 
        "pageref": "pageref_0", 
        "request": {
          "headers": [
            {
              "name": "host", 
              "value": "aff.ecartoon.net"
            }, 
            {
              "name": "content-type", 
              "value": "application/x-www-form-urlencoded"
            }, 
            {
              "name": "connection", 
              "value": "Keep-Alive"
            }, 
            {
              "name": "accept-encoding", 
              "value": "gzip"
            }, 
            {
              "name": "user-agent", 
              "value": "Dalvik/2.1.0 (Linux; U; Android 5.1.1; Lenovo A6020a40 Build/LMY47V)"
            }
          ], 
          "cookies": [], 
          "postData": {
            "text": ""
          }, 
          "url": "http://aff.ecartoon.net/ppfiles/20150731105034/wget_PIE", 
          "bodySize": 0, 
          "queryString": [], 
          "method": "GET", 
          "headersSize": -1, 
          "httpVersion": "1.1"
        }, 
        "timings": {
          "receive": 0, 
          "send": 0, 
          "connect": 342, 
          "dns": 455, 
          "blocked": -1, 
          "wait": 133
        }, 
        "time": 931, 
        "response": {
          "status": 302, 
          "headers": [
            {
              "name": "connection", 
              "value": "close"
            }, 
            {
              "name": "location", 
              "value": "http://220.243.237.148/aff.ecartoon.net/ppfiles/20150731105034/wget_PIE?wsiphost=local"
            }, 
            {
              "name": "cache-control", 
              "value": "no-cache"
            }
          ], 
          "cookies": [], 
          "content": {
            "mimeType": "application/x-unknown-content-type", 
            "text": "", 
            "encoding": "base64", 
            "compression": 0, 
            "size": 0
          }, 
          "redirectURL": "http://220.243.237.148/aff.ecartoon.net/ppfiles/20150731105034/wget_PIE?wsiphost=local", 
          "statusText": "Found", 
          "bodySize": 0, 
          "headersSize": -1, 
          "httpVersion": "1.0"
        }
      }, 
      {
        "cache": {}, 
        "startedDateTime": "2017-05-12T22:19:34.473142Z", 
        "pageref": "pageref_0", 
        "request": {
          "headers": [
            {
              "name": "host", 
              "value": "220.243.237.148"
            }, 
            {
              "name": "content-type", 
              "value": "application/x-www-form-urlencoded"
            }, 
            {
              "name": "connection", 
              "value": "Keep-Alive"
            }, 
            {
              "name": "accept-encoding", 
              "value": "gzip"
            }, 
            {
              "name": "user-agent", 
              "value": "Dalvik/2.1.0 (Linux; U; Android 5.1.1; Lenovo A6020a40 Build/LMY47V)"
            }
          ], 
          "cookies": [], 
          "postData": {
            "text": ""
          }, 
          "url": "http://220.243.237.148/aff.ecartoon.net/ppfiles/20150731105034/wget_PIE?wsiphost=local", 
          "bodySize": 0, 
          "queryString": [
            {
              "name": "wsiphost", 
              "value": "local"
            }
          ], 
          "method": "GET", 
          "headersSize": -1, 
          "httpVersion": "1.1"
        }, 
        "timings": {
          "receive": 0, 
          "send": 0, 
          "connect": 205, 
          "dns": -1, 
          "blocked": -1, 
          "wait": 129
        }, 
        "time": 334, 
        "response": {
          "status": 404, 
          "headers": [
            {
              "name": "content-length", 
              "value": "0"
            }, 
            {
              "name": "via", 
              "value": "1.1 tdx198:3 (Cdn Cache Server V2.0)[63 404 2], 1.1 dxinxzai53:3 (Cdn Cache Server V2.0)[0 404 0], 1.1 jg148:6 (Cdn Cache Server V2.0)[0 404 1]"
            }, 
            {
              "name": "age", 
              "value": "5"
            }, 
            {
              "name": "server", 
              "value": "Apache-Coyote/1.1"
            }, 
            {
              "name": "connection", 
              "value": "close"
            }, 
            {
              "name": "date", 
              "value": "Fri, 12 May 2017 22:19:29 GMT"
            }
          ], 
          "cookies": [], 
          "content": {
            "mimeType": "application/x-unknown-content-type", 
            "text": "", 
            "encoding": "base64", 
            "compression": 0, 
            "size": 0
          }, 
          "redirectURL": "", 
          "statusText": "Not Found", 
          "bodySize": 0, 
          "headersSize": -1, 
          "httpVersion": "1.1"
        }
      }
    ], 
    "pages": [
      {
        "pageTimings": {
          "onLoad": -1, 
          "onContentLoad": -1
        }, 
        "title": "page_0", 
        "id": "pageref_0", 
        "startedDateTime": "2017-05-12T22:18:13.582440Z"
      }
    ], 
    "creator": {
      "version": "0.1", 
      "name": "pcap2har"
    }
  }
}