{
  "log": {
    "browser": {
      "version": "mumble", 
      "name": "Mozilla/5.0 (Linux; Android 5.1.1; Lenovo A6020a40 Build/LMY47V) AppleWebKit/537.36 (KHTML, like Gecko) Chrome/58.0.3029.83 Mobile Safari/537.36"
    }, 
    "version": "1.1", 
    "entries": [
      {
        "cache": {}, 
        "startedDateTime": "2017-05-12T22:53:16.636700Z", 
        "pageref": "pageref_0", 
        "request": {
          "headers": [
            {
              "name": "accept-language", 
              "value": "en-US,en;q=0.8"
            }, 
            {
              "name": "accept-encoding", 
              "value": "gzip, deflate, sdch"
            }, 
            {
              "name": "connection", 
              "value": "keep-alive"
            }, 
            {
              "name": "accept", 
              "value": "text/html,application/xhtml+xml,application/xml;q=0.9,image/webp,*/*;q=0.8"
            }, 
            {
              "name": "user-agent", 
              "value": "Mozilla/5.0 (Linux; Android 5.1.1; Lenovo A6020a40 Build/LMY47V) AppleWebKit/537.36 (KHTML, like Gecko) Chrome/58.0.3029.83 Mobile Safari/537.36"
            }, 
            {
              "name": "host", 
              "value": "www.weather.com"
            }, 
            {
              "name": "upgrade-insecure-requests", 
              "value": "1"
            }
          ], 
          "cookies": [], 
          "postData": {
            "text": ""
          }, 
          "url": "http://www.weather.com/", 
          "bodySize": 0, 
          "queryString": [], 
          "method": "GET", 
          "headersSize": -1, 
          "httpVersion": "1.1"
        }, 
        "timings": {
          "receive": 0, 
          "send": 0, 
          "connect": 211, 
          "dns": 249, 
          "blocked": -1, 
          "wait": 30
        }, 
        "time": 492, 
        "response": {
          "status": 301, 
          "headers": [
            {
              "name": "content-length", 
              "value": "0"
            }, 
            {
              "name": "access-control-allow-methods", 
              "value": "GET,POST"
            }, 
            {
              "name": "twc-device-class", 
              "value": "mobile"
            }, 
            {
              "name": "twc-connection-speed", 
              "value": "4G"
            }, 
            {
              "name": "access-control-max-age", 
              "value": "86400"
            }, 
            {
              "name": "set-cookie", 
              "value": "*****************************************************************************************************************************************************************************************************************************************************************************************************************************************************************************************************************************"
            }, 
            {
              "name": "expires", 
              "value": "Fri, 12 May 2017 22:53:16 GMT"
            }, 
            {
              "name": "x-origin-hint", 
              "value": "mobile_front_forwarder"
            }, 
            {
              "name": "server", 
              "value": "AkamaiGHost"
            }, 
            {
              "name": "property-id", 
              "value": "drupal-prod"
            }, 
            {
              "name": "access-control-allow-credentials", 
              "value": "false"
            }, 
            {
              "name": "connection", 
              "value": "keep-alive"
            }, 
            {
              "name": "location", 
              "value": "https://www.weather.com/"
            }, 
            {
              "name": "twc-geoip-latlong", 
              "value": "40.8699,-73.0833"
            }, 
            {
              "name": "cache-control", 
              "value": "max-age=0"
            }, 
            {
              "name": "date", 
              "value": "Fri, 12 May 2017 22:53:16 GMT"
            }, 
            {
              "name": "access-control-allow-origin", 
              "value": "*"
            }, 
            {
              "name": "access-control-allow-headers", 
              "value": "*"
            }, 
            {
              "name": "twc-geoip-country", 
              "value": "US"
            }, 
            {
              "name": "twc-locale-group", 
              "value": "US"
            }
          ], 
          "cookies": [], 
          "content": {
            "mimeType": "application/x-unknown-content-type", 
            "text": "", 
            "encoding": "base64", 
            "compression": 0, 
            "size": 0
          }, 
          "redirectURL": "https://www.weather.com/", 
          "statusText": "Moved Permanently", 
          "bodySize": 0, 
          "headersSize": -1, 
          "httpVersion": "1.1"
        }
      }
    ], 
    "pages": [
      {
        "pageTimings": {
          "onLoad": -1, 
          "onContentLoad": -1
        }, 
        "title": "page_0", 
        "id": "pageref_0", 
        "startedDateTime": "2017-05-12T22:53:16.636700Z"
      }
    ], 
    "creator": {
      "version": "0.1", 
      "name": "pcap2har"
    }
  }
}