{
  "log": {
    "browser": {
      "version": "mumble", 
      "name": "Mozilla/5.0 (Linux; Android 5.1.1; Lenovo A6020a40 Build/LMY47V) AppleWebKit/537.36 (KHTML, like Gecko) Chrome/58.0.3029.83 Mobile Safari/537.36"
    }, 
    "version": "1.1", 
    "entries": [
      {
        "cache": {}, 
        "startedDateTime": "2017-05-12T22:35:05.002561Z", 
        "pageref": "pageref_0", 
        "request": {
          "headers": [
            {
              "name": "accept-language", 
              "value": "en-US,en;q=0.8"
            }, 
            {
              "name": "accept-encoding", 
              "value": "gzip, deflate, sdch"
            }, 
            {
              "name": "connection", 
              "value": "keep-alive"
            }, 
            {
              "name": "accept", 
              "value": "text/html,application/xhtml+xml,application/xml;q=0.9,image/webp,*/*;q=0.8"
            }, 
            {
              "name": "user-agent", 
              "value": "Mozilla/5.0 (Linux; Android 5.1.1; Lenovo A6020a40 Build/LMY47V) AppleWebKit/537.36 (KHTML, like Gecko) Chrome/58.0.3029.83 Mobile Safari/537.36"
            }, 
            {
              "name": "host", 
              "value": "www.yelp.com"
            }, 
            {
              "name": "upgrade-insecure-requests", 
              "value": "1"
            }
          ], 
          "cookies": [], 
          "postData": {
            "text": ""
          }, 
          "url": "http://www.yelp.com/", 
          "bodySize": 0, 
          "queryString": [], 
          "method": "GET", 
          "headersSize": -1, 
          "httpVersion": "1.1"
        }, 
        "timings": {
          "receive": 0, 
          "send": 0, 
          "connect": 63, 
          "dns": 86, 
          "blocked": -1, 
          "wait": 170
        }, 
        "time": 320, 
        "response": {
          "status": 301, 
          "headers": [
            {
              "name": "content-length", 
              "value": "0"
            }, 
            {
              "name": "via", 
              "value": "1.1 varnish"
            }, 
            {
              "name": "vary", 
              "value": "User-Agent"
            }, 
            {
              "name": "x-node", 
              "value": "www_all10-65-255-141-useast1cprod-ec93cf41-375f-11e7-9138-0242f93ac770"
            }, 
            {
              "name": "x-content-type-options", 
              "value": "nosniff"
            }, 
            {
              "name": "x-cache-hits", 
              "value": "0"
            }, 
            {
              "name": "location", 
              "value": "https://www.yelp.com/"
            }, 
            {
              "name": "cache-control", 
              "value": "private"
            }, 
            {
              "name": "referrer-policy", 
              "value": "origin-when-cross-origin"
            }, 
            {
              "name": "x-served-by", 
              "value": "cache-jfk8131-JFK"
            }, 
            {
              "name": "x-cache", 
              "value": "MISS"
            }, 
            {
              "name": "set-cookie", 
              "value": "************************************************************************************************************************************************************************************************************************************************************************************"
            }, 
            {
              "name": "accept-ranges", 
              "value": "bytes"
            }, 
            {
              "name": "x-xss-protection", 
              "value": "1; report=https://www.yelp.com/xss_protection_report"
            }, 
            {
              "name": "date", 
              "value": "Fri, 12 May 2017 22:35:05 GMT"
            }, 
            {
              "name": "x-mode", 
              "value": "ro"
            }, 
            {
              "name": "age", 
              "value": "0"
            }, 
            {
              "name": "x-timer", 
              "value": "S1494628505.063356,VS0,VE23"
            }, 
            {
              "name": "server", 
              "value": "nginx"
            }, 
            {
              "name": "connection", 
              "value": "keep-alive"
            }, 
            {
              "name": "x-proxied", 
              "value": "10-65-0-124-useast1aprod10-65-0-124-useast1aprod"
            }, 
            {
              "name": "content-type", 
              "value": "text/html; charset=UTF-8"
            }
          ], 
          "cookies": [], 
          "content": {
            "mimeType": "text/html", 
            "compression": 0, 
            "size": 0
          }, 
          "redirectURL": "https://www.yelp.com/", 
          "statusText": "Moved Permanently", 
          "bodySize": 0, 
          "headersSize": -1, 
          "httpVersion": "1.1"
        }
      }
    ], 
    "pages": [
      {
        "pageTimings": {
          "onLoad": -1, 
          "onContentLoad": -1
        }, 
        "title": "page_0", 
        "id": "pageref_0", 
        "startedDateTime": "2017-05-12T22:35:05.002561Z"
      }
    ], 
    "creator": {
      "version": "0.1", 
      "name": "pcap2har"
    }
  }
}